﻿1;2;00000;1;2018-05-21;0;1;1;activo;0000-00-00 00:00:00;0000-00-00 00:00:00
2;3;00000;1;2018-09-01;0;1;1;activo;0000-00-00 00:00:00;0000-00-00 00:00:00
3;4;00000;1;2018-03-15;0;1;1;activo;0000-00-00 00:00:00;0000-00-00 00:00:00
4;5;00000;1;2018-10-10;0;1;1;activo;0000-00-00 00:00:00;0000-00-00 00:00:00
5;6;00000;1;2018-09-21;0;1;1;activo;0000-00-00 00:00:00;0000-00-00 00:00:00
6;7;00000;1;2019-01-24;0;1;1;activo;0000-00-00 00:00:00;0000-00-00 00:00:00
7;8;00000;1;2019-08-19;0;1;1;activo;0000-00-00 00:00:00;0000-00-00 00:00:00
8;9;00000;1;2019-08-26;0;1;1;activo;0000-00-00 00:00:00;0000-00-00 00:00:00
9;10;00000;1;2019-09-16;0;1;1;activo;0000-00-00 00:00:00;0000-00-00 00:00:00
10;11;00000;1;2019-09-23;0;1;1;activo;0000-00-00 00:00:00;0000-00-00 00:00:00
11;12;00000;1;2019-09-23;0;1;1;activo;0000-00-00 00:00:00;0000-00-00 00:00:00
12;13;00000;1;2019-10-15;0;1;1;activo;0000-00-00 00:00:00;0000-00-00 00:00:00
13;14;00000;1;2019-10-15;0;1;1;activo;0000-00-00 00:00:00;0000-00-00 00:00:00
14;15;00000;1;2019-10-21;0;1;1;activo;0000-00-00 00:00:00;0000-00-00 00:00:00
15;16;00000;1;2019-10-21;0;1;1;activo;0000-00-00 00:00:00;0000-00-00 00:00:00
16;17;00000;1;2019-10-21;0;1;1;activo;0000-00-00 00:00:00;0000-00-00 00:00:00
17;18;00000;1;2019-11-18;0;1;1;activo;0000-00-00 00:00:00;0000-00-00 00:00:00
18;19;00000;1;2019-12-02;0;1;1;activo;0000-00-00 00:00:00;0000-00-00 00:00:00
19;20;00000;1;2019-12-16;0;1;1;activo;0000-00-00 00:00:00;0000-00-00 00:00:00
20;21;00000;1;2020-06-03;0;1;1;activo;0000-00-00 00:00:00;0000-00-00 00:00:00
21;22;00000;1;2020-06-16;0;1;1;activo;0000-00-00 00:00:00;0000-00-00 00:00:00
22;23;00000;1;2020-07-27;0;1;1;activo;0000-00-00 00:00:00;0000-00-00 00:00:00
23;24;00000;1;2020-10-01;0;1;1;activo;0000-00-00 00:00:00;0000-00-00 00:00:00
24;25;00000;1;2020-10-01;0;1;1;activo;0000-00-00 00:00:00;0000-00-00 00:00:00
25;26;00000;1;2020-11-16;0;1;1;activo;0000-00-00 00:00:00;0000-00-00 00:00:00
26;27;00000;1;2021-02-17;0;1;1;activo;0000-00-00 00:00:00;0000-00-00 00:00:00
27;28;00000;1;2021-04-05;0;1;1;activo;0000-00-00 00:00:00;0000-00-00 00:00:00
28;29;00000;1;2021-05-03;0;1;1;activo;0000-00-00 00:00:00;0000-00-00 00:00:00
29;30;00000;1;2021-05-03;0;1;1;activo;0000-00-00 00:00:00;0000-00-00 00:00:00
30;31;00000;1;2021-05-04;0;1;1;activo;0000-00-00 00:00:00;0000-00-00 00:00:00
31;32;00000;1;2021-05-10;0;1;1;activo;0000-00-00 00:00:00;0000-00-00 00:00:00
32;33;00000;1;2021-05-17;0;1;1;activo;0000-00-00 00:00:00;0000-00-00 00:00:00
33;34;00000;1;2021-07-01;0;1;1;activo;0000-00-00 00:00:00;0000-00-00 00:00:00
34;35;00000;1;2021-07-01;0;1;1;activo;0000-00-00 00:00:00;0000-00-00 00:00:00
35;36;00000;1;2021-07-01;0;1;1;activo;0000-00-00 00:00:00;0000-00-00 00:00:00
36;37;00000;1;2021-07-12;0;1;1;activo;0000-00-00 00:00:00;0000-00-00 00:00:00
37;38;00000;1;2021-07-15;0;1;1;activo;0000-00-00 00:00:00;0000-00-00 00:00:00
38;39;00000;1;2016-10-03;0;1;1;activo;0000-00-00 00:00:00;0000-00-00 00:00:00
39;40;00000;1;2019-06-15;0;1;1;activo;0000-00-00 00:00:00;0000-00-00 00:00:00
40;41;00000;1;2021-01-01;0;1;1;activo;0000-00-00 00:00:00;0000-00-00 00:00:00
;;;;;;;;;;
;;;;;;;;;;
;;;;;;;;;;
;;;;;;;;;;
